$ 1 0.0000026041666666666666 15.472767971186109 50 5 50 5e-11
a 464 240 576 240 8 9 -9 1000000 -0.000009849629354333207 0 100000
a 464 400 576 400 8 3 -3 1000000 0.00000984982374739054 0 100000
a 80 528 208 528 8 15 -15 1000000 0.00000984982544112754 0 100000
r 80 464 208 464 0 1000
w 208 464 208 528 0
w 80 464 80 512 0
R 80 384 32 384 0 4 40 12 0 0 0.5
g 80 544 80 576 0 0
r 80 384 80 464 0 1000
w 464 224 464 192 0
r 464 192 576 192 0 1000
w 576 192 576 240 0
g 464 256 464 272 0 0
a 1008 336 1136 336 8 15 -15 1000000 -0.000032494448134483716 0 100000
r 1008 288 1120 288 0 3300000
w 1120 288 1136 288 0
w 1136 288 1136 336 0
w 1008 288 1008 320 0
r 608 528 912 528 0 1000000
w 912 336 912 320 0
w 912 320 1008 320 0
w 1136 336 1248 336 0
r 368 384 464 384 0 1000
w 464 384 464 352 0
r 464 352 576 352 0 1000
w 576 352 576 400 0
g 464 416 464 448 0 0
r 608 400 912 400 0 250000
w 912 336 912 400 0
w 912 400 912 528 0
w 368 384 80 384 0
w 464 352 464 336 0
w 464 320 608 320 0
w 608 320 608 400 0
w 464 320 464 336 0
g 1008 352 1008 400 0 0
w 368 528 608 528 0
w 368 528 208 528 0
w 208 224 208 464 0
w 208 224 224 224 0
r 464 224 368 224 0 1000
w 368 224 224 224 0
w 464 192 464 160 0
w 464 160 608 160 0
w 608 160 608 240 0
r 608 240 896 240 0 250000
w 896 240 912 240 0
w 912 240 912 320 0
211 1248 336 1312 336 0 3 48000 1
a 432 16 608 16 8 6 -6 1000000 -0.9849825441127541 0 100000
g 432 32 432 64 0 0
w 608 16 672 16 0
a 736 32 912 32 8 15 -15 1000000 0.00010029730409762827 0 100000
r 672 16 736 16 0 1000
w 432 -48 656 -48 0
r 672 -48 736 -48 0 1000
w 736 -48 736 16 0
g 736 48 736 80 0 0
w 656 -48 672 -48 0
r 736 -48 912 -48 0 2000
w 912 -48 912 32 0
w 432 -48 432 0 0
w 208 224 208 0 0
w 208 0 432 0 0
o 60 64 0 4106 20 0.025 0 2 60 3
o 16 64 0 4099 10 0.00009765625 0 2 16 3
