$ 1 0.0000026041666666666666 114.32915054483153 43 5 50 5e-11
. Overdrive 0 2 2 3 In 2 0 2 Max\sV 8 1 2 OUT 1 0 3 OpAmpElm\s1\s2\s3\rResistorElm\s3\s4\rTransistorElm\s4\s5\s1\rTransistorElm\s4\s6\s1\rOpAmpElm\s7\s0\s6\rResistorElm\s5\s7\rResistorElm\s7\s6\rOpAmpSwapElm\s5\s8\s5 8\\s15\\s-15\\s1000000\\s-3.20169812e-315\\s0\\s100000\s0\\s100000\s0\\s1\\s3.20169663364135e-310\\s3.20172865062255e-310\\s100\\sdefault\s0\\s-1\\s3.20169663364135e-310\\s3.20172865062255e-310\\s100\\sdefault\s8\\s15\\s-15\\s1000000\\s0\\s0\\s100000\s0\\s1000\s0\\s1000\s9\\s15\\s-15\\s1000000\\s0\\s0\\s100000
410 480 256 640 336 1 Overdrive 8\s15\s-15\s1000000\s-1.0001788733885597\s-1.6520835143259671\s100000 0\s100000 0\s1\s-2.5433910090583387\s-0.5432221355697804\s100\sdefault 0\s-1\s-0.5434310082583549\s-0.5432221355697804\s100\sdefault 8\s15\s-15\s1000000\s0.000009999700006999852\s0\s100000 0\s1000 0\s1000 9\s15\s-15\s1000000\s0.9999900000999987\s0.9999999999999997\s100000
410 480 352 672 432 1 Overdrive 8\s15\s-15\s1000000\s-1.6520632913935838\s-1.6520835143259671\s100000 0\s100000 0\s1\s-5.022099261261765\s-0.37006596956818494\s100\sdefault 0\s-1\s0.9777807411381856\s-0.37006596956818494\s100\sdefault 8\s15\s-15\s1000000\s0.000029999100020999545\s0\s100000 0\s1000 0\s1000 9\s15\s-15\s1000000\s2.9999700002999963\s2.9999999999999996\s100000
a 624 368 736 368 8 150 -150 1000000 -0.000016520302507885686 0 100000
r 576 352 624 352 0 10000000
w 624 352 624 320 0
r 624 320 736 320 0 10000000
w 736 320 736 368 0
g 624 384 624 416 0 0
r 736 368 848 368 0 4000000
r 576 464 624 464 0 8000000
a 896 480 1024 480 8 15 -15 1000000 -4.354688730382499e-7 0 100000
w 624 464 896 464 0
w 848 368 896 368 0
w 896 368 896 464 0
w 672 256 896 256 0
w 896 256 896 368 0
r 896 368 1024 368 0 1000000
w 1024 368 1024 480 0
g 896 496 896 544 0 0
w 1024 480 1168 480 0
R 384 464 256 464 0 4 100 4 0 0 0.5
w 384 464 576 464 0
w 384 464 384 352 0
w 384 352 480 352 0
w 384 352 384 256 0
w 384 256 480 256 0
r 576 256 672 256 0 4000000
r 288 208 288 272 0 1000
r 288 272 288 336 0 2000
r 288 336 288 384 0 1000
g 288 384 288 416 0 0
w 288 336 464 304 0
w 464 304 480 288 0
w 480 384 288 272 0
R 288 208 208 208 0 0 40 4 0 0 0.5
o 19 32 0 13578 0.12505105798109395 0.0001 0 2 19 3
o 20 32 0 4102 5 0.0015625 0 2 20 3
o 6 32 0 4103 5 0.00009765625 0 2 6 3
o 26 32 0 4103 1.25 0.00009765625 0 2 26 3
o 9 32 0 4103 5 0.00009765625 0 2 9 3
